{
  "cache": {
    "redis": {
      "address": "localhost",
      "db": 0,
      "password": "",
      "port": 6379
    }
  },
  "database": {
    "mongodb": {
      "database": "yourdb",
      "host": "localhost:27017",
      "password": "",
      "username": ""
    }
  },
  "jwt_secret_key": "2c1141f0259b40017ebf938e59fd3a5b74af8d4cd98f7c720da17b4d02d6bd82d58943661f269c40890dace37897dafb70f38e11cbc535359c2846353b98b370",
  "message_broker": {
    "rabbitmq": {
      "address": "localhost",
      "password": "guest",
      "port": 5672,
      "username": "guest"
    }
  },
  "servers": {
    "todoapp": {
      "address": ":8001"
    }
  }
}